construct scales
…
d_par_w1 <- d_par_w1_raw %>%
  filter(participant_id != "405_1") %>% # removing mother who has less waves of data than father
  filter(participant_id != "614_1") %>% # removing mother who has less waves of data than father
  distinct(family_id, .keep_all = TRUE) # 95 primary caregivers

Number of participants types in Wave 1

# 123 total participants in w1, from which...

d_par_w1 %>%
  filter(participant == 1) # 89 were moms

## # A tibble: 89 x 319
##      school_id   condition response_id      family_id participant_id participant
##      <dbl+lbl>   <dbl+lbl> <chr>            <chr>     <chr>            <dbl+lbl>
##  1 1 [cascade] 1 [control] R_3iUaUYvoJkIzA~ 101       101_1              1 [mom]
##  2 1 [cascade] 1 [control] R_210xNhBk2IAgg~ 102       102_1              1 [mom]
##  3 1 [cascade] 1 [control] R_27dSwPdKnZtpM~ 103       103_1              1 [mom]
##  4 1 [cascade] 1 [control] R_1LHx25fNdiir2~ 104       104_1              1 [mom]
##  5 1 [cascade] 1 [control] R_3KJdsHXWcD8Tm~ 105       105_1              1 [mom]
##  6 1 [cascade] 1 [control] R_25vxZQkLmPHfP~ 106       106_1              1 [mom]
##  7 1 [cascade] 1 [control] R_3oSiFrm6s9AcI~ 107       107_1              1 [mom]
##  8 1 [cascade] 1 [control] R_qEpuf5Yrfo8ar~ 108       108_1              1 [mom]
##  9 1 [cascade] 1 [control] R_2X51yWkwaYhYi~ 109       109_1              1 [mom]
## 10 1 [cascade] 1 [control] R_1Fb1zE5xN7jEy~ 110       110_1              1 [mom]
## # ... with 79 more rows, and 313 more variables: participant_4_text <chr>,
## #   wave <dbl+lbl>, location <dbl+lbl>, location_5_text <chr>, q1 <dbl+lbl>,
## #   q2 <dbl+lbl>, q3 <dbl+lbl>, q4 <dbl+lbl>, q5 <dbl+lbl>, q6 <dbl+lbl>,
## #   q7 <dbl+lbl>, q8 <dbl+lbl>, q9 <dbl+lbl>, q10 <dbl+lbl>, q11 <dbl+lbl>,
## #   q12_1 <dbl+lbl>, q12_2 <dbl+lbl>, q12_3 <dbl+lbl>, q12_4 <dbl+lbl>,
## #   q12_5 <dbl+lbl>, q12_5_text <chr>, q13 <dbl+lbl>, q13_1_text <chr>,
## #   q14 <dbl+lbl>, q15 <dbl+lbl>, q16 <dbl+lbl>, q17 <dbl+lbl>, ...
…
Data prep: reverse scoring negatively worded items

d2_par_w1 <- d1_par_w1 %>%
  mutate(q82 = likert_reverse(q82, top = 4, bottom = 1),
         q83 = likert_reverse(q83, top = 4, bottom = 1),
         q131 = likert_reverse(q131, top = 4, bottom = 1),
         q133 = likert_reverse(q133, top = 4, bottom = 1),
         q136 = likert_reverse(q136, top = 4, bottom = 1))

checking reverse scoring

d1_par_w1 %>%
  select(q136)

## # A tibble: 95 x 1
##     q136
##    <dbl>
##  1     2
##  2     2
##  3     2
##  4     2
##  5     2
##  6     3
##  7    NA
##  8     2
##  9     1
## 10     2
## # ... with 85 more rows

d2_par_w1 %>%
  select(q136)

## # A tibble: 95 x 1
##     q136
##    <dbl>
##  1     3
##  2     3
##  3     3
##  4     3
##  5     3
##  6     2
##  7    NA
##  8     3
##  9     4
## 10     3
## # ... with 85 more rows
…
